{
    "editor": [
        {
            "icon": "",
            "key": "settings",
            "header": "Settings",
            "disabled": false,
            "fields": [
                {
                    "key": "title",
                    "header": "Title",
                    "type": "text"
                },
                {
                    "key": "titleFont",
                    "header": "Google Font Name",
                    "type": "text"
                },
                {
                    "key": "titleColor",
                    "header": "Title Color",
                    "type": "color"
                },
                {
                    "key": "labelColor",
                    "header": "Label Color",
                    "type": "color"
                },
                {
                    "key": "backgroundImage",
                    "header": "Background Image",
                    "type": "image"
                },
                {
                    "key": "FrontImage",
                    "header": "Front Image",
                    "type": "image"
                },
                {
                    "key": "revealImage",
                    "header": "Reveal Image",
                    "type": "image"
                },
                {
                    "key": "items",
                    "header": "Items",
                    "type": "array",
                    "fields": [
                        {
                            "key": "item1",
                            "header": "Item 1",
                            "type": "array",
                            "fields": [
                                {
                                    "key": "label",
                                    "header": "Item 1 Label",
                                    "type": "text"
                                },
                                {
                                    "key": "probability",
                                    "header": "Probabilty of item",
                                    "type": "number"
                                },
                                {
                                    "key": "image",
                                    "header": "Label Image",
                                    "type": "image"
                                }
                            ]
                        },
                        {
                            "key": "item2",
                            "header": "Item 2",
                            "type": "array",
                            "fields": [
                                {
                                    "key": "label",
                                    "header": "Item 2 Label",
                                    "type": "text"
                                },
                                {
                                    "key": "probability",
                                    "header": "Probabilty of item",
                                    "type": "number"
                                },
                                {
                                    "key": "image",
                                    "header": "Label Image",
                                    "type": "image"
                                }
                            ]
                        },
                        {
                            "key": "item3",
                            "header": "Item 3",
                            "type": "array",
                            "fields": [
                                {
                                    "key": "label",
                                    "header": "Item 3 Label",
                                    "type": "text"
                                },
                                {
                                    "key": "probability",
                                    "header": "Probabilty of item",
                                    "type": "number"
                                },
                                {
                                    "key": "image",
                                    "header": "Label Image",
                                    "type": "image"
                                }
                            ]
                        }
                    ]
                }
            ]
        }
    ],
    "config": {
        "settings": {
            "title": "Scratch card",
            "titleFont": "Poppins",
            "titleColor": "white",
            "backgroundImage": "https://frontend.apps.playcent.com/7ec2c8a273ae4916a075e6c1eb2dc82b/assets/0bb6dqsiab451.gif",
            "revealImage": "https://frontend.apps.playcent.com/7ec2c8a273ae4916a075e6c1eb2dc82b/assets/maxresdefault (6).jpg",
            "labelColor": "#ffffff",
            "items": {
                "item1": {
                    "label": "You Win",
                    "probability": "0.2",
                    "image": "https://frontend.apps.playcent.com/7ec2c8a273ae4916a075e6c1eb2dc82b/assets/1_KOj47lkJHi9w8bxAvFAvEg.jpeg"
                },
                "item2": {
                    "label": "Try Again",
                    "probability": "0.3",
                    "image": "https://frontend.apps.playcent.com/7ec2c8a273ae4916a075e6c1eb2dc82b/assets/istockphoto-1154070218-640x640.jpg"
                },
                "item3": {
                    "label": "You lose",
                    "probability": "0.5",
                    "image": "https://frontend.apps.playcent.com/7ec2c8a273ae4916a075e6c1eb2dc82b/assets/10.jpg"
                }
            },
            "FrontImage": "https://frontend.apps.playcent.com/7ec2c8a273ae4916a075e6c1eb2dc82b/assets/6242_scratch_1559542007.png"
        }
    }
}